Parte B/simulation/qsim/FF_D.msim.vcd
$comment
	File created using the following command:
		vcd file FF_D.msim.vcd -direction
$end
$date
	Fri Nov 01 15:30:37 2024
$end
$version
	ModelSim Version 10.1d
$end
$timescale
	1ps
$end
$scope module restador_vlg_vec_tst $end
$var reg 1 ! clk $end
$var reg 1 " in_a $end
$var reg 1 # in_b $end
$var reg 1 $ in_borrin $end
$var wire 1 % o_borrout $end
$var wire 1 & o_resta $end
$var wire 1 ' sampler $end
$scope module i1 $end
$var wire 1 ( gnd $end
$var wire 1 ) vcc $end
$var wire 1 * unknown $end
$var tri1 1 + devclrn $end
$var tri1 1 , devpor $end
$var tri1 1 - devoe $end
$var wire 1 . o_borrout~output_o $end
$var wire 1 / o_resta~output_o $end
$var wire 1 0 clk~input_o $end
$var wire 1 1 clk~inputclkctrl_outclk $end
$var wire 1 2 in_b~input_o $end
$var wire 1 3 D2|Q~feeder_combout $end
$var wire 1 4 D2|Q~q $end
$var wire 1 5 in_borrin~input_o $end
$var wire 1 6 D3|Q~feeder_combout $end
$var wire 1 7 D3|Q~q $end
$var wire 1 8 in_a~input_o $end
$var wire 1 9 D1|Q~feeder_combout $end
$var wire 1 : D1|Q~q $end
$var wire 1 ; borrout~0_combout $end
$var wire 1 < D4|Q~q $end
$var wire 1 = resta~0_combout $end
$var wire 1 > D5|Q~q $end
$upscope $end
$upscope $end
$enddefinitions $end
#0
$dumpvars
x!
0"
1#
1$
0%
0&
x'
0(
1)
x*
1+
1,
1-
0.
0/
x0
x1
12
13
04
15
16
07
08
09
0:
0;
0<
0=
0>
$end
#10000
1"
0#
0$
18
02
05
0'
19
03
06
#20000
0"
08
1'
09
#30000
1#
1$
1"
12
15
18
0'
13
16
19
#40000
0#
0$
02
05
1'
03
06
#50000
1$
15
0'
16
#60000
0$
05
1'
06
#70000
0"
08
0'
09
#80000
1#
1$
12
15
1'
13
16
#90000
1"
18
0'
19
#100000
0"
08
1'
09
#110000
0#
0$
02
05
0'
03
06
#120000
1$
15
1'
16
#140000
1#
0$
12
05
0'
13
06
#160000
1"
18
1'
19
#170000
0#
02
0'
03
#180000
1$
15
1'
16
#190000
0"
1#
0$
08
12
05
0'
09
13
06
#200000
1"
18
1'
19
#210000
0#
0"
02
08
0'
03
09
#220000
1$
15
1'
16
#230000
1#
0$
12
05
0'
13
06
#240000
1"
0#
18
02
1'
19
03
#250000
1$
15
0'
16
#260000
1#
12
1'
13
#270000
0"
0#
08
02
0'
09
03
#280000
1#
12
1'
13
#290000
1"
18
0'
19
#300000
0$
0#
0"
05
02
08
1'
06
03
09
#310000
1$
15
0'
16
#320000
1"
0$
18
05
1'
19
06
#330000
1$
15
0'
16
#340000
1#
0"
12
08
1'
13
09
#350000
0$
0#
1"
05
02
18
0'
06
03
19
#360000
0"
08
1'
09
#370000
1$
1"
15
18
0'
16
19
#380000
1#
12
1'
13
#390000
0$
0#
05
02
0'
06
03
#400000
0"
1$
08
15
1'
09
16
#420000
1#
1"
12
18
0'
13
19
#430000
0$
0#
05
02
1'
06
03
#440000
1#
12
0'
13
#450000
1$
15
1'
16
#460000
0"
0$
08
05
0'
09
06
#480000
0#
1"
1$
02
18
15
1'
03
19
16
#500000
0"
0$
08
05
0'
09
06
#510000
1#
1"
12
18
1'
13
19
#530000
1$
15
0'
16
#540000
0#
0$
02
05
1'
03
06
#560000
0"
08
0'
09
#570000
1#
1$
12
15
1'
13
16
#580000
1"
0#
0$
18
02
05
0'
19
03
06
#590000
1$
15
1'
16
#600000
1#
0$
12
05
0'
13
06
#610000
0"
1$
08
15
1'
09
16
#620000
1"
18
0'
19
#630000
0$
05
1'
06
#640000
0#
0"
02
08
0'
03
09
#650000
1$
1#
15
12
1'
16
13
#670000
1"
0$
18
05
0'
19
06
#680000
0"
1$
08
15
1'
09
16
#690000
1"
0$
18
05
0'
19
06
#700000
0"
1$
08
15
1'
09
16
#720000
0#
02
0'
03
#730000
0$
1#
05
12
1'
06
13
#740000
1$
15
0'
16
#760000
0$
05
1'
06
#790000
1"
0#
1$
18
02
15
0'
19
03
16
#800000
1#
12
1'
13
#810000
0$
05
0'
06
#820000
0#
1$
02
15
1'
03
16
#830000
0"
1#
08
12
0'
09
13
#840000
1"
0#
18
02
1'
19
03
#850000
0$
0"
1#
05
08
12
0'
06
09
13
#860000
1$
1"
15
18
1'
16
19
#870000
0$
05
0'
06
#890000
0#
1$
02
15
1'
03
16
#900000
0"
08
0'
09
#910000
1#
0$
12
05
1'
13
06
#920000
0#
1$
02
15
0'
03
16
#930000
1#
0$
12
05
1'
13
06
#940000
1"
0#
18
02
0'
19
03
#950000
0"
1#
08
12
1'
09
13
#960000
1"
18
0'
19
#980000
0#
02
1'
03
#990000
1$
15
0'
16
