Parte C/simulation/qsim/restadorC.msim.vcd
$comment
	File created using the following command:
		vcd file restadorC.msim.vcd -direction
$end
$date
	Wed Nov 06 17:03:01 2024
$end
$version
	ModelSim Version 10.1d
$end
$timescale
	1ps
$end
$scope module esquematicoC_vlg_vec_tst $end
$var reg 1 ! a1 $end
$var reg 1 " a2 $end
$var reg 1 # a3 $end
$var reg 1 $ a4 $end
$var reg 1 % b1 $end
$var reg 1 & b2 $end
$var reg 1 ' b3 $end
$var reg 1 ( b4 $end
$var reg 1 ) borrin $end
$var reg 1 * CLK $end
$var reg 1 + PRN $end
$var wire 1 , borrout $end
$var wire 1 - r1 $end
$var wire 1 . r2 $end
$var wire 1 / r3 $end
$var wire 1 0 r4 $end
$var wire 1 1 sampler $end
$scope module i1 $end
$var wire 1 2 gnd $end
$var wire 1 3 vcc $end
$var wire 1 4 unknown $end
$var tri1 1 5 devclrn $end
$var tri1 1 6 devpor $end
$var tri1 1 7 devoe $end
$var wire 1 8 borrout~output_o $end
$var wire 1 9 r4~output_o $end
$var wire 1 : r3~output_o $end
$var wire 1 ; r2~output_o $end
$var wire 1 < r1~output_o $end
$var wire 1 = CLK~input_o $end
$var wire 1 > CLK~inputclkctrl_outclk $end
$var wire 1 ? a2~input_o $end
$var wire 1 @ inst4~feeder_combout $end
$var wire 1 A PRN~input_o $end
$var wire 1 B PRN~inputclkctrl_outclk $end
$var wire 1 C inst4~q $end
$var wire 1 D b1~input_o $end
$var wire 1 E inst7~feeder_combout $end
$var wire 1 F inst7~q $end
$var wire 1 G borrin~input_o $end
$var wire 1 H inst12~feeder_combout $end
$var wire 1 I inst12~q $end
$var wire 1 J a1~input_o $end
$var wire 1 K inst10~feeder_combout $end
$var wire 1 L inst10~q $end
$var wire 1 M inst|borrout~0_combout $end
$var wire 1 N a3~input_o $end
$var wire 1 O inst5~feeder_combout $end
$var wire 1 P inst5~q $end
$var wire 1 Q b4~input_o $end
$var wire 1 R inst11~q $end
$var wire 1 S a4~input_o $end
$var wire 1 T inst6~feeder_combout $end
$var wire 1 U inst6~q $end
$var wire 1 V inst3|resta~0_combout $end
$var wire 1 W inst3|resta~combout $end
$var wire 1 X inst13~q $end
$var wire 1 Y b3~input_o $end
$var wire 1 Z inst9~feeder_combout $end
$var wire 1 [ inst9~q $end
$var wire 1 \ inst1|borrout~0_combout $end
$var wire 1 ] inst2|borrout~0_combout $end
$var wire 1 ^ inst14~q $end
$var wire 1 _ b2~input_o $end
$var wire 1 ` inst8~feeder_combout $end
$var wire 1 a inst8~q $end
$var wire 1 b inst1|resta~combout $end
$var wire 1 c inst15~q $end
$var wire 1 d inst|resta~0_combout $end
$var wire 1 e inst16~q $end
$upscope $end
$upscope $end
$enddefinitions $end
#0
$dumpvars
0!
1"
1#
0$
0%
0&
0'
1(
0)
0*
1+
0,
0-
0.
0/
00
x1
02
13
x4
15
16
17
08
09
0:
0;
0<
0=
0>
1?
1@
1A
1B
0C
0D
0E
0F
0G
0H
0I
0J
0K
0L
0M
1N
1O
0P
1Q
0R
0S
0T
0U
0V
0W
0X
0Y
0Z
0[
0\
0]
0^
0_
0`
0a
0b
0c
0d
0e
$end
#5000
1*
1=
1>
01
1R
1P
1C
1b
#10000
0#
1)
0*
0N
1G
0=
0>
11
0O
1H
#15000
1*
1=
1>
01
0P
1I
1c
1V
1d
1M
1;
1.
1W
0b
#20000
0"
1%
1#
0)
0*
0?
1D
1N
0G
0=
0>
11
0@
1E
1O
0H
#25000
1!
1*
1J
1=
1>
01
1K
1P
0I
1F
0C
1e
0c
1X
0V
1b
1\
0W
1<
0;
19
1-
0.
10
1W
#30000
1'
0%
0#
1Y
0D
0N
11
1Z
0E
0O
#35000
0!
0*
0J
0=
0>
01
0K
#40000
1$
1&
1)
1%
1S
1_
1G
1D
11
1T
1`
1H
1E
#45000
1!
1J
01
1K
#50000
0(
0'
0)
0%
0!
0Q
0Y
0G
0D
0J
11
0Z
0H
0E
0K
#55000
1!
1J
01
1K
#60000
1"
1#
0$
0&
1'
1?
1N
0S
0_
1Y
11
1@
1O
0T
0`
1Z
#65000
0!
0J
01
0K
#70000
1*
1(
0"
0#
1&
0'
1=
1Q
0?
0N
1_
0Y
1>
11
0@
0O
1`
0Z
1[
0F
1C
1c
1]
1V
0d
0M
0b
0\
0W
1;
1.
1W
1b
0]
#75000
1!
1J
01
1K
#80000
1)
1%
1$
0*
0(
1#
0&
0!
1G
1D
1S
0=
0Q
1N
0_
0J
0>
11
1H
1E
1T
1O
0`
0K
#85000
1!
1J
01
1K
#90000
1"
0)
0%
0$
1(
1&
1?
0G
0D
0S
1Q
1_
11
1@
0H
0E
0T
1`
#95000
1*
0!
1=
0J
1>
01
0K
1a
0[
1L
0e
0b
0V
1d
0<
0-
0W
#100000
1'
1)
0(
0&
0*
1Y
1G
0Q
0_
0=
0>
11
1Z
1H
0`
#110000
1%
1!
1(
1*
1D
1J
1Q
1=
1>
01
1E
1K
0a
1[
0L
1I
1e
0c
0X
1b
1V
1M
1<
0;
09
1-
0.
00
1W
0b
#115000
0*
0=
0>
11
#120000
0#
0'
0)
0%
0!
0(
0N
0Y
0G
0D
0J
0Q
01
0O
0Z
0H
0E
0K
#130000
1$
1*
1#
1%
1!
1S
1=
1N
1D
1J
1>
11
1T
1O
1E
1K
0[
0R
0P
0I
1X
0V
0d
0M
19
10
0W
1b
#135000
0*
0=
0>
01
#140000
1&
1'
1(
0$
0#
0%
0!
1*
1_
1Y
1Q
0S
0N
0D
0J
1=
1>
11
1`
1Z
0T
0O
0E
0K
1U
1R
1P
1L
1F
0e
1c
0X
1V
0<
1;
09
0-
1.
00
1W
#145000
1!
1J
01
1K
#150000
1)
0&
0'
0(
1$
1#
0*
1G
0_
0Y
0Q
1S
1N
0=
0>
11
1H
0`
0Z
1T
1O
#155000
1*
1=
1>
01
0R
1I
0F
1X
0V
19
10
0W
#160000
0)
1&
1'
0$
0#
0*
0G
1_
1Y
0S
0N
0=
0>
11
0H
1`
1Z
0T
0O
#170000
1)
0'
1G
0Y
01
1H
0Z
#175000
0!
0J
11
0K
#180000
1(
0&
1#
1'
1!
1Q
0_
1N
1Y
1J
01
0`
1O
1Z
1K
#190000
0"
1%
1$
0)
0(
1&
0!
0?
1D
1S
0G
0Q
1_
0J
11
0@
1E
1T
0H
1`
0K
#195000
1!
1J
01
1K
#200000
0#
0%
0&
0N
0D
0_
11
0O
0E
0`
#205000
1*
0!
1=
0J
1>
01
0K
1[
0P
0I
0C
0X
1]
1d
0b
09
00
#210000
0'
0$
1(
1#
1%
0Y
0S
1Q
1N
1D
11
0Z
0T
1O
1E
#215000
0*
1!
0=
1J
0>
01
1K
#220000
1"
1)
1&
0#
0%
0!
1?
1G
1_
0N
0D
0J
11
1@
1H
1`
0O
0E
0K
#225000
1*
1!
1=
1J
1>
01
1K
1a
0[
0U
1R
0L
1I
1C
1e
0c
1^
0]
1V
1M
1<
0;
1:
1-
0.
1/
1b
1\
1]
#230000
1'
0(
0&
1#
1%
0*
0!
1Y
0Q
0_
1N
1D
0=
0J
0>
11
1Z
0`
1O
1E
0K
#235000
1*
1=
1>
01
0a
1[
0R
1P
1F
1c
0b
0\
1W
0V
0d
1;
1.
0]
0W
#240000
1$
0)
1(
1!
1S
0G
1Q
1J
11
1T
0H
1K
#245000
0*
0=
0>
01
#250000
0"
0'
0#
0%
0!
1*
0?
0Y
0N
0D
0J
1=
1>
11
0@
0Z
0O
0E
0K
1U
1R
1L
0I
0e
0c
0^
0M
0<
0;
0:
0-
0.
0/
1b
#255000
1!
1J
01
1K
#260000
1"
1'
1%
1?
1Y
1D
11
1@
1Z
1E
#265000
0!
0J
01
0K
#270000
1&
1)
1#
1_
1G
1N
11
1`
1H
1O
#275000
1!
1J
01
1K
#280000
0$
0*
0'
0!
0S
0=
0Y
0J
0>
11
0T
0Z
0K
#285000
1*
1!
1=
1J
1>
01
1K
1a
0[
0U
0L
1I
1c
0b
1M
1;
1.
1b
1\
1W
#290000
0"
0&
1$
1'
0*
0!
0?
0_
1S
1Y
0=
0J
0>
11
0@
0`
1T
1Z
0K
#295000
1*
1=
1>
01
0a
1[
1U
0C
1X
1]
19
10
#300000
0(
0%
0)
0#
0'
0*
0Q
0D
0G
0N
0Y
0=
0>
11
0E
0H
0O
0Z
#305000
1*
1=
1>
01
0[
0R
0P
0I
0F
1^
1V
0M
1:
1/
0b
0\
0]
#310000
1"
1&
0$
1!
1(
0*
1?
1_
0S
1J
1Q
0=
0>
11
1@
1`
0T
1K
#315000
1*
1=
1>
01
1a
0U
1R
1L
1C
0c
0^
1d
0;
0:
0.
0/
#320000
1%
1)
1#
1'
0&
1$
0*
1D
1G
1N
1Y
0_
1S
0=
0>
11
1E
1H
1O
1Z
0`
1T
#325000
0!
0J
01
0K
#330000
0(
0)
1&
0Q
0G
1_
11
0H
1`
#335000
1*
1!
1=
1J
1>
01
1K
1[
1U
0R
1P
0L
1F
1e
1M
1<
1-
1b
1\
0W
1]
#340000
0%
0$
1)
0&
0*
0!
0D
0S
1G
0_
0=
0J
0>
11
0E
0T
1H
0`
0K
#345000
1*
1!
1=
1J
1>
01
1K
0a
0U
1I
0F
1c
1^
0X
0b
0\
1W
0V
1;
1:
09
1.
1/
00
0]
0W
#350000
0#
0'
0)
0N
0Y
0G
11
0O
0Z
0H
#355000
0*
0!
0=
0J
0>
01
0K
#360000
1(
1$
1&
1*
1Q
1S
1_
1=
1>
11
1T
1`
0[
1R
0P
0I
0c
0^
1V
0d
0M
0;
0:
0.
0/
1W
1b
#365000
1!
1J
01
1K
#370000
1'
1)
0(
1Y
1G
0Q
11
1Z
1H
#375000
0*
0!
0=
0J
0>
01
0K
#380000
0"
1%
1#
0&
0'
0)
0?
1D
1N
0_
0Y
0G
11
0@
1E
1O
0`
0Z
0H
#385000
1*
1!
1=
1J
1>
01
1K
1U
0R
1P
1F
0C
0e
1c
1X
0V
1d
1M
0b
0<
1;
19
0-
1.
10
1b
1\
#390000
1(
1'
0*
1Q
1Y
0=
0>
11
1Z
#395000
0!
0J
01
0K
#400000
1"
0%
0#
1)
0'
1*
1!
1?
0D
0N
1G
0Y
1=
1J
1>
11
1@
0E
0O
1H
0Z
1K
1[
1R
1e
1]
1<
1-
#405000
0!
0J
01
0K
#410000
0(
1%
1#
0)
1!
0Q
1D
1N
0G
1J
11
1E
1O
0H
1K
#415000
0*
0=
0>
01
#420000
0$
1&
1'
1(
0#
1)
0!
1*
0S
1_
1Y
1Q
0N
1G
0J
1=
1>
11
0T
1`
1Z
0O
1H
0K
0[
1L
1C
1^
0]
1V
0d
0M
0b
0\
0W
1:
1/
1W
1b
#430000
0%
1$
0'
1#
0*
0D
1S
0Y
1N
0=
0>
01
0E
1T
0Z
1O
#440000
0(
0#
0Q
0N
11
0O
#445000
1!
1*
1J
1=
1>
01
1K
1a
0R
0P
0L
1I
0F
0e
0^
0b
1d
1M
0<
0:
0-
0/
1b
1\
0W
1]
#450000
0&
0)
1(
1#
0!
0*
0_
0G
1Q
1N
0J
0=
0>
11
0`
0H
1O
0K
#455000
1!
1J
01
1K
#460000
0"
1%
0$
1'
1&
0(
0#
0?
1D
0S
1Y
1_
0Q
0N
11
0@
1E
0T
1Z
1`
0O
#465000
0!
0J
01
0K
#470000
1*
1"
0%
1$
0'
1!
1=
1?
0D
1S
0Y
1J
1>
11
1@
0E
1T
0Z
1K
1[
0U
0I
1F
0C
1e
1^
0X
0b
1<
1:
09
1-
1/
00
#475000
0!
0J
01
0K
#480000
0&
1(
1#
0$
1'
1!
0_
1Q
1N
0S
1Y
1J
11
0`
1O
0T
1Z
1K
#485000
0*
0!
0=
0J
0>
01
0K
#490000
1)
0(
1$
0'
1*
1!
1G
0Q
1S
0Y
1=
1J
1>
11
1H
1T
0Z
1K
0a
1P
0F
1C
0c
0\
1W
0V
0d
0M
0;
0.
0]
0W
1b
#495000
0!
0J
01
0K
#500000
0"
1&
0#
1!
0?
1_
0N
1J
11
0@
1`
0O
1K
#510000
0)
0&
1#
0G
0_
1N
01
0H
0`
1O
#520000
1'
0*
1"
0!
1)
1&
0#
1Y
0=
1?
0J
1G
1_
0N
0>
11
1Z
1@
0K
1H
1`
0O
#525000
1*
1=
1>
01
1a
1U
0P
1I
0e
1c
0^
0b
1]
1d
1M
0<
1;
0:
0-
1.
0/
1b
1\
1W
#530000
1%
0'
1!
0&
0*
1D
0Y
1J
0_
0=
0>
11
1E
0Z
1K
0`
#540000
0$
0"
0)
1#
0%
1'
1&
1*
0S
0?
0G
1N
0D
1Y
1_
1=
1>
01
0T
0@
0H
1O
0E
1Z
1`
0a
0[
1L
1F
1e
1^
1X
0b
0\
0W
1V
1<
1:
19
1-
1/
10
0]
1W
#550000
1"
1%
0&
1?
1D
0_
11
1@
1E
0`
#555000
0*
0=
0>
01
#560000
0!
1)
0"
1*
0J
1G
0?
1=
1>
11
0K
1H
0@
1[
0U
1P
0I
0c
0^
0V
0d
0M
0;
0:
0.
0/
0W
1b
#565000
1!
1J
01
1K
#570000
1(
1$
0'
0%
1&
1"
0!
1Q
1S
0Y
0D
1_
1?
0J
11
1T
0Z
0E
1`
1@
0K
#580000
0#
0(
0"
1!
0N
0Q
0?
1J
01
0O
0@
1K
#585000
0*
0=
0>
11
#590000
0$
1'
0&
1"
0S
1Y
0_
1?
01
0T
1Z
0`
1@
#595000
0!
1*
0J
1=
1>
11
0K
0P
1I
0F
0e
1c
0X
1]
1V
0<
1;
09
0-
1.
00
1W
#600000
0)
1$
0"
0G
1S
0?
01
0H
1T
0@
#605000
0*
0=
0>
11
#610000
1%
1(
0$
1*
1D
1Q
0S
1=
1>
01
1E
0T
1U
1R
0L
0I
0C
1^
1X
0b
1:
19
1/
10
#615000
1!
0*
1J
0=
0>
11
1K
#620000
1#
0'
1&
1"
0%
0(
1N
0Y
1_
1?
0D
0Q
01
1O
0Z
1`
1@
0E
#630000
1$
0!
0#
1'
1%
1(
1S
0J
0N
1Y
1D
1Q
11
1T
0K
0O
1Z
1E
#635000
1*
1=
1>
01
1a
1F
1C
0c
1d
1M
0;
0.
1b
1\
0W
#640000
1)
1#
0(
1G
1N
0Q
11
1H
1O
#645000
0*
0=
0>
01
#650000
1!
1*
1J
1=
1>
11
1K
0R
1P
1I
1e
1c
0X
0d
1<
1;
09
1-
1.
00
#655000
0!
0*
0J
0=
0>
01
0K
#660000
0&
0$
0'
0%
0)
0#
1(
1*
0_
0S
0Y
0D
0G
0N
1Q
1=
1>
11
0`
0T
0Z
0E
0H
0O
1R
0e
0V
0<
0-
1W
#670000
1!
1$
1)
0*
1J
1S
1G
0=
0>
01
1K
1T
1H
#675000
1*
1=
1>
11
0a
0[
0P
1L
0F
1X
0b
0\
0W
0M
19
10
0]
1b
#680000
0"
1&
1'
1%
1#
0(
0!
0?
1_
1Y
1D
1N
0Q
0J
01
0@
1`
1Z
1E
1O
0K
#685000
0*
1!
0=
1J
0>
11
1K
#690000
0)
1"
1(
0!
0G
1?
1Q
0J
01
0H
1@
0K
#700000
0#
1)
0"
0(
0N
1G
0?
0Q
11
0O
1H
0@
#705000
1*
1=
1>
01
1a
1[
0R
0L
1F
0C
0^
0X
1\
1W
1]
1M
0:
09
0/
00
0b
#710000
0'
1!
1#
1"
0Y
1J
1N
1?
11
0Z
1K
1O
1@
#715000
0!
0J
01
0K
#720000
0&
0*
1'
0#
0_
0=
1Y
0N
0>
11
0`
1Z
0O
#725000
1!
1*
1J
1=
1>
01
1K
0a
1C
0c
1^
1X
0\
0W
0;
1:
19
0.
1/
10
#730000
0$
0)
1(
1&
0'
0!
0S
0G
1Q
1_
0Y
0J
11
0T
0H
1`
0Z
0K
#735000
0*
0=
0>
01
#740000
0"
1$
1'
0?
1S
1Y
11
0@
1T
1Z
#745000
1*
1=
1>
01
1a
1R
0I
0C
0X
1\
1W
1V
1d
09
00
0W
#750000
1)
0(
1"
0*
1G
0Q
1?
0=
0>
11
1H
1@
#755000
1!
1J
01
1K
#760000
0$
0'
0)
1(
0"
1*
0!
0S
0Y
0G
1Q
0?
1=
0J
1>
11
0T
0Z
0H
0@
0K
1L
1I
1C
1e
1b
1<
1-
#770000
0%
1#
1"
0D
1N
1?
01
0E
1O
1@
#775000
1!
1J
11
1K
#780000
0&
1$
1'
1)
0"
0_
1S
1Y
1G
0?
01
0`
1T
1Z
1H
0@
#785000
0!
0J
11
0K
#790000
1%
0#
1&
0'
1!
1D
0N
1_
0Y
1J
01
1E
0O
1`
0Z
1K
#795000
0!
0J
11
0K
#800000
0$
1#
0&
1'
1!
0S
1N
0_
1Y
1J
01
0T
1O
0`
1Z
1K
#805000
0!
0J
11
0K
#810000
0(
1"
0%
1&
1!
0Q
1?
0D
1_
1J
01
1@
0E
1`
1K
#815000
0*
0=
0>
11
#820000
0)
1$
1(
0"
1%
0&
1*
0G
1S
1Q
0?
1D
0_
1=
1>
01
0H
1T
0@
1E
0`
0U
1P
0F
1c
0d
0M
1;
1.
0b
0\
1W
0]
#830000
0'
0!
0$
1"
0%
1&
0*
0Y
0J
0S
1?
0D
1_
0=
0>
11
0Z
0K
0T
1@
0E
1`
#835000
1!
1*
1J
1=
1>
01
1K
0[
0L
0I
0e
0c
0^
1X
0V
0<
0;
0:
19
0-
0.
0/
10
0W
#840000
0#
1)
0(
1'
0&
0!
0*
0N
1G
0Q
1Y
0_
0J
0=
0>
11
0O
1H
1Z
0`
0K
#845000
1!
1J
01
1K
#850000
0"
1%
1#
0)
0'
0!
0?
1D
1N
0G
0Y
0J
11
0@
1E
1O
0H
0Z
0K
#855000
1*
1=
1>
01
0a
0R
1F
0C
0X
1V
1d
1M
09
00
1b
1\
#860000
1&
0%
1!
0*
1_
0D
1J
0=
0>
11
1`
0E
1K
#865000
1*
1=
1>
01
1a
1L
0F
1e
1c
0b
0M
1<
1;
1-
1.
1b
#870000
1$
1(
0#
1)
1'
0*
1S
1Q
0N
1G
1Y
0=
0>
11
1T
0O
1H
1Z
#875000
0!
0J
01
0K
#880000
1"
0&
1%
1#
1*
1!
1?
0_
1D
1N
1=
1J
1>
11
1@
0`
1E
1O
1K
1[
1U
1R
0P
0L
1I
1]
1M
0b
#885000
0*
0!
0=
0J
0>
01
0K
#890000
0$
0'
0"
1&
0#
1*
1!
0S
0Y
0?
1_
0N
1=
1J
1>
11
0T
0Z
0@
1`
0O
1K
0a
1P
1F
1C
0c
1^
0\
1W
0V
0d
0;
1:
0.
1/
0]
0W
#895000
0!
0J
01
0K
#900000
0)
1$
1'
1"
0&
1!
0G
1S
1Y
1?
0_
1J
11
0H
1T
1Z
1@
0`
1K
#905000
0*
0!
0=
0J
0>
01
0K
#910000
0(
1)
0$
0'
1!
0Q
1G
0S
0Y
1J
11
1H
0T
0Z
1K
#915000
1*
1=
1>
01
0[
0U
0R
0P
1L
0e
0^
1d
0<
0:
0-
0/
#920000
0%
0"
0)
1'
0!
0*
0D
0?
0G
1Y
0J
0=
0>
11
0E
0@
0H
1Z
0K
#925000
1*
1=
1>
01
1[
0L
0I
0F
0C
1e
1]
1V
0d
0M
1b
1\
1W
1<
1-
0b
0\
#930000
1#
1&
1$
1)
0'
1!
0*
1N
1_
1S
1G
0Y
1J
0=
0>
11
1O
1`
1T
1H
0Z
1K
#935000
0!
1*
0J
1=
1>
01
0K
1a
0[
1U
1P
1L
1I
0e
1^
1X
1b
1\
0W
0]
0V
0<
1:
19
0-
1/
10
1W
#940000
1"
0#
0$
1'
1!
0*
1?
0N
0S
1Y
1J
0=
0>
11
1@
0O
0T
1Z
1K
#945000
1*
1=
1>
01
1[
0U
0P
1C
1c
0^
1]
1V
0b
0\
0W
1;
0:
1.
0/
1W
#950000
1$
0*
1S
0=
0>
11
1T
#960000
1%
0&
0)
1#
0'
0!
0$
1*
1D
0_
0G
1N
0Y
0J
0S
1=
1>
01
1E
0`
0H
1O
0Z
0K
0T
1U
0c
1^
0V
0;
1:
0.
1/
0W
#965000
0*
0=
0>
11
#970000
1(
1&
1'
1!
1$
1*
1Q
1_
1Y
1J
1S
1=
1>
01
1`
1Z
1K
1T
0a
0[
0U
1R
1P
0L
0I
1F
0X
1b
0]
1d
1M
09
00
0b
#980000
0"
0#
0(
0&
0'
0!
0$
0?
0N
0Q
0_
0Y
0J
0S
11
0@
0O
0`
0Z
0K
0T
#990000
1#
1'
1!
1$
1N
1Y
1J
1S
01
1O
1Z
1K
1T
#995000
0!
0J
11
0K
