simulation/qsim/ej1labfpga.msim.vcd
$comment
	File created using the following command:
		vcd file ej1labfpga.msim.vcd -direction
$end
$date
	Wed Oct 23 22:46:46 2024
$end
$version
	ModelSim Version 10.1d
$end
$timescale
	1ps
$end
$scope module ej1labfpga_vlg_vec_tst $end
$var reg 1 ! SW1 $end
$var reg 1 " SW2 $end
$var reg 1 # SW3 $end
$var wire 1 $ LED $end
$var wire 1 % sampler $end
$scope module i1 $end
$var wire 1 & gnd $end
$var wire 1 ' vcc $end
$var wire 1 ( unknown $end
$var tri1 1 ) devclrn $end
$var tri1 1 * devpor $end
$var tri1 1 + devoe $end
$var wire 1 , LED~output_o $end
$var wire 1 - SW3~input_o $end
$var wire 1 . SW2~input_o $end
$var wire 1 / SW1~input_o $end
$var wire 1 0 LED~0_combout $end
$upscope $end
$upscope $end
$enddefinitions $end
#0
$dumpvars
0!
1"
1#
1$
x%
0&
1'
x(
1)
1*
1+
1,
1-
1.
0/
10
$end
#20000
0"
0.
0%
#30000
1!
0#
1"
1/
0-
1.
1%
00
0,
0$
#40000
0!
1#
0"
0/
1-
0.
0%
10
1,
1$
#50000
1!
1"
1/
1.
1%
00
0,
0$
#60000
0#
0!
0"
0-
0/
0.
0%
#70000
1#
1!
1"
1-
1/
1.
1%
#80000
0!
0/
0%
10
1,
1$
#90000
0#
0"
1!
0-
0.
1/
1%
#110000
1#
1-
0%
#120000
1"
0!
0#
1.
0/
0-
1%
#140000
0"
1!
0.
1/
0%
#160000
1#
1"
0!
1-
1.
0/
1%
#170000
0"
0.
0%
#180000
0#
1"
0-
1.
1%
#190000
1!
1#
1/
1-
0%
00
0,
0$
#200000
0!
0#
0/
0-
1%
10
1,
1$
#220000
1!
1#
1/
1-
0%
00
0,
0$
#230000
0"
0!
0.
0/
1%
10
1,
1$
#240000
0#
1"
0-
1.
0%
#250000
1#
1-
1%
#280000
1!
0"
1/
0.
0%
#300000
1"
1.
1%
00
0,
0$
#310000
0"
0.
0%
10
1,
1$
#340000
0#
0!
1"
0-
0/
1.
1%
#350000
1#
1!
1-
1/
0%
00
0,
0$
#360000
0!
0/
1%
10
1,
1$
#370000
0"
0#
1!
0.
0-
1/
0%
#390000
1"
1.
1%
00
0,
0$
#400000
0!
0"
0/
0.
0%
#410000
1#
1!
1-
1/
1%
10
1,
1$
#420000
0#
0!
0-
0/
0%
00
0,
0$
#440000
1"
1.
1%
10
1,
1$
#450000
1!
1/
0%
00
0,
0$
#460000
0!
0/
1%
10
1,
1$
#470000
1#
0"
1-
0.
0%
#490000
1!
0#
1"
1/
0-
1.
1%
00
0,
0$
#500000
0!
1#
0/
1-
0%
10
1,
1$
#510000
0"
0#
0.
0-
1%
00
0,
0$
#520000
1"
1#
1.
1-
0%
10
1,
1$
#530000
1!
0#
1/
0-
1%
00
0,
0$
#550000
0"
0!
0.
0/
0%
#560000
1#
1!
1-
1/
1%
10
1,
1$
#570000
1"
0#
0!
1.
0-
0/
0%
#590000
0"
1#
1!
0.
1-
1/
1%
#610000
0#
0-
0%
#620000
1"
1.
1%
00
0,
0$
#630000
0"
0.
0%
10
1,
1$
#640000
0!
1#
0/
1-
1%
#650000
1!
1/
0%
#660000
1"
0!
1.
0/
1%
#670000
1!
1/
0%
00
0,
0$
#680000
0#
0-
1%
#690000
0!
1#
0/
1-
0%
10
1,
1$
#700000
0"
0#
0.
0-
1%
00
0,
0$
#710000
1#
1-
0%
10
1,
1$
#720000
1!
1"
0#
1/
1.
0-
1%
00
0,
0$
#750000
0!
1#
0/
1-
0%
10
1,
1$
#760000
0"
1!
0#
0.
1/
0-
1%
#770000
0!
1#
0/
1-
0%
#780000
1!
1/
1%
#790000
1"
0#
0!
1.
0-
0/
0%
#800000
0"
0.
1%
00
0,
0$
#810000
1!
1/
0%
10
1,
1$
#820000
1"
0!
1.
0/
1%
#830000
1#
1-
0%
#840000
0"
1!
0#
0.
1/
0-
1%
#850000
0!
1#
0/
1-
0%
#870000
1"
1!
0#
1.
1/
0-
1%
00
0,
0$
#880000
0"
1#
0.
1-
0%
10
1,
1$
#890000
0!
0#
0/
0-
1%
00
0,
0$
#900000
1#
1-
0%
10
1,
1$
#920000
1"
1.
1%
#930000
1!
0#
0"
1/
0-
0.
0%
#940000
0!
1"
0/
1.
1%
#950000
1#
1-
0%
#960000
1!
0"
0#
1/
0.
0-
1%
#980000
0!
1"
0/
1.
0%
#990000
1!
1/
1%
00
0,
0$
