Parte D/simulation/qsim/Estados.msim.vcd
$comment
	File created using the following command:
		vcd file Estados.msim.vcd -direction
$end
$date
	Wed Nov 06 18:55:19 2024
$end
$version
	ModelSim Version 10.1d
$end
$timescale
	1ps
$end
$scope module Estados_vlg_vec_tst $end
$var reg 1 ! clock $end
$var reg 1 " reset $end
$var reg 1 # x $end
$var wire 1 $ z1 $end
$var wire 1 % z2 $end
$var wire 1 & z3 $end
$var wire 1 ' z4 $end
$var wire 1 ( sampler $end
$scope module i1 $end
$var wire 1 ) gnd $end
$var wire 1 * vcc $end
$var wire 1 + unknown $end
$var tri1 1 , devclrn $end
$var tri1 1 - devpor $end
$var tri1 1 . devoe $end
$var wire 1 / clock~input_o $end
$var wire 1 0 x~input_o $end
$var wire 1 1 clock~inputclkctrl_outclk $end
$var wire 1 2 z4~output_o $end
$var wire 1 3 z3~output_o $end
$var wire 1 4 z2~output_o $end
$var wire 1 5 z1~output_o $end
$var wire 1 6 reset~input_o $end
$var wire 1 7 fstate.state_bit_0~0_combout $end
$var wire 1 8 fstate.state_bit_0~q $end
$var wire 1 9 fstate.state_bit_1~0_combout $end
$var wire 1 : fstate.state_bit_1~q $end
$var wire 1 ; fstate.state_bit_2~0_combout $end
$var wire 1 < fstate.state_bit_2~1_combout $end
$var wire 1 = fstate.state_bit_2~q $end
$var wire 1 > z4~0_combout $end
$var wire 1 ? z3~0_combout $end
$var wire 1 @ z2~0_combout $end
$var wire 1 A z1~0_combout $end
$upscope $end
$upscope $end
$enddefinitions $end
#0
$dumpvars
1!
0"
1#
x$
x%
x&
x'
x(
0)
1*
x+
1,
1-
1.
1/
10
x1
x2
x3
x4
x5
06
x7
08
x9
0:
x;
x<
0=
x>
x?
x@
xA
$end
#187
11
#665
0A
#1034
0>
#1047
09
#1232
0@
#1268
0?
#3232
05
0$
#3533
17
#3546
1;
#3602
02
0'
#3907
1<
#3939
04
0%
#4161
03
0&
#5000
0!
0(
#5924
0/
#6097
01
#10000
1!
1(
#10819
1/
#11006
11
#13397
18
1=
#13826
07
#14352
1>
#15000
0!
0(
#15924
0/
#16097
01
#16940
12
1'
#25000
1!
1(
#25819
1/
#26006
11
#28397
08
#28900
0;
#29245
19
#29268
0<
#29663
1?
#30000
0!
0(
#30924
0/
#31097
01
#32586
13
1&
#35000
1!
1(
#35819
1/
#36006
11
#38397
1:
0=
#39025
1A
#39026
1@
#39093
1;
#39115
17
#39454
1<
#40000
0#
0(
#40874
00
#41611
15
1$
#41775
14
1%
#44668
0;
#45000
0!
1(
#45036
0<
#45924
0/
#46097
01
#55000
1!
0(
#55819
1/
#56006
11
#58397
18
#58826
07
#59160
09
#59596
0@
#59633
0?
#60000
1#
0!
1(
#60769
10
#60924
0/
#61097
01
#62303
04
0%
#62526
03
0&
#65000
1!
0(
#65819
1/
#66006
11
#68397
08
0:
#68806
17
#68916
1;
#69062
0A
#69065
0>
#69075
1?
#69081
1@
#69277
1<
#69629
0@
#69665
0?
#71629
05
0$
#71633
02
0'
#85000
0!
1(
#85924
0/
#86097
01
#90000
0#
0(
#90874
00
#94668
0;
#95036
0<
#105000
1!
1(
#105819
1/
#106006
11
#108397
18
#108826
07
#109158
19
#109610
1@
#109631
1?
#110000
0!
0(
#110924
0/
#111097
01
#112359
14
1%
#112554
13
1&
#120000
1#
1!
1(
#120769
10
#120819
1/
#121006
11
#123397
08
1:
#123806
17
#124007
0?
#124010
0@
#124025
1A
#124026
1>
#124315
1;
#124643
1@
#124663
1?
#124676
1<
#125000
0!
0(
#125924
0/
#126097
01
#126611
15
1$
#126614
12
1'
#135000
1!
1(
#135819
1/
#136006
11
#138397
18
1=
#138823
0;
#138826
07
#139160
09
#139191
0<
#139568
0A
#140000
0!
0(
#140924
0/
#141097
01
#142135
05
0$
#150000
0#
1!
1(
#150819
1/
#150874
00
#151006
11
#153397
08
0:
0=
#153916
1;
#154115
17
#154277
1<
#154431
0>
#154629
0@
#154665
0?
#154668
0;
#155000
0!
0(
#155036
0<
#155924
0/
#156097
01
#156999
02
0'
#157336
04
0%
#157558
03
0&
#160000
1!
1(
#160819
1/
#161006
11
#163397
18
#163826
07
#164158
19
#164610
1@
#164631
1?
#167359
14
1%
#167554
13
1&
#175000
0!
0(
#175924
0/
#176097
01
#180000
1!
1(
#180819
1/
#181006
11
#183397
08
1:
#183806
17
#184007
0?
#184010
0@
#184025
1A
#184026
1>
#184643
1@
#184663
1?
#186611
15
1$
#186614
12
1'
#190000
1#
0!
0(
#190769
10
#190924
0/
#191097
01
#194315
1;
#194676
1<
#205000
1!
1(
#205819
1/
#206006
11
#208397
18
1=
#208823
0;
#208826
07
#209160
09
#209191
0<
#209568
0A
#210000
0#
0!
0(
#210874
00
#210924
0/
#211097
01
#212135
05
0$
#220000
1#
1!
1(
#220769
10
#220819
1/
#221006
11
#223397
08
0:
0=
#224115
17
#224315
1;
#224431
0>
#224629
0@
#224665
0?
#224676
1<
#226999
02
0'
#227336
04
0%
#227558
03
0&
#230000
0#
0!
0(
#230874
00
#230924
0/
#231097
01
#234668
0;
#235000
1!
1(
#235036
0<
#235819
1/
#236006
11
#238397
18
#238826
07
#239158
19
#239610
1@
#239631
1?
#240000
1#
0!
0(
#240769
10
#240924
0/
#241097
01
#242359
14
1%
#242554
13
1&
#250000
0#
1(
#250874
00
#270000
1#
0(
#270769
10
#280000
1!
1(
#280819
1/
#281006
11
#283397
08
1:
#283806
17
#283916
1;
#284007
0?
#284010
0@
#284025
1A
#284026
1>
#284277
1<
#284643
1@
#284663
1?
#286611
15
1$
#286614
12
1'
#300000
0#
0(
#300874
00
#304668
0;
#305000
0!
1(
#305036
0<
#305924
0/
#306097
01
#310000
1!
0(
#310819
1/
#311006
11
#313397
18
#313826
07
#314160
09
#314596
0@
#314633
0?
#315000
0!
1(
#315924
0/
#316097
01
#317303
04
0%
#317526
03
0&
#320000
1#
1!
0(
#320769
10
#320819
1/
#321006
11
#323397
08
0:
#323806
17
#324062
0A
#324065
0>
#324075
1?
#324081
1@
#324315
1;
#324629
0@
#324665
0?
#324676
1<
#325000
0!
1(
#325924
0/
#326097
01
#326629
05
0$
#326633
02
0'
#330000
0#
0(
#330874
00
#334668
0;
#335000
1!
1(
#335036
0<
#335819
1/
#336006
11
#338397
18
#338826
07
#339158
19
#339610
1@
#339631
1?
#342359
14
1%
#342554
13
1&
#345000
0!
0(
#345924
0/
#346097
01
#360000
1#
1(
#360769
10
#370000
1!
0#
0(
#370819
1/
#370874
00
#371006
11
#373397
08
1:
#373806
17
#373916
1;
#374007
0?
#374010
0@
#374025
1A
#374026
1>
#374277
1<
#374643
1@
#374663
1?
#374668
0;
#375036
0<
#376611
15
1$
#376614
12
1'
#380000
1#
1(
#380769
10
#384315
1;
#384676
1<
#385000
0!
0(
#385924
0/
#386097
01
#390000
0#
1(
#390874
00
#394668
0;
#395036
0<
#400000
1!
1#
0(
#400769
10
#400819
1/
#401006
11
#403397
18
#403826
07
#404160
09
#404596
0@
#404633
0?
#407303
04
0%
#407526
03
0&
#415000
0!
1(
#415924
0/
#416097
01
#440000
0#
1!
0(
#440819
1/
#440874
00
#441006
11
#443397
08
0:
#443806
17
#443916
1;
#444062
0A
#444065
0>
#444075
1?
#444081
1@
#444277
1<
#444629
0@
#444665
0?
#444668
0;
#445036
0<
#446629
05
0$
#446633
02
0'
#460000
0!
1(
#460924
0/
#461097
01
#465000
1!
0(
#465819
1/
#466006
11
#468397
18
#468826
07
#469158
19
#469610
1@
#469631
1?
#470000
0!
1(
#470924
0/
#471097
01
#472359
14
1%
#472554
13
1&
#480000
1!
0(
#480819
1/
#481006
11
#483397
08
1:
#483806
17
#484007
0?
#484010
0@
#484025
1A
#484026
1>
#484643
1@
#484663
1?
#485000
0!
1(
#485924
0/
#486097
01
#486611
15
1$
#486614
12
1'
#490000
1#
1!
0(
#490769
10
#490819
1/
#491006
11
#493397
18
#493826
07
#494160
09
#494596
0@
#494633
0?
#497303
04
0%
#497526
03
0&
#500000
0#
0!
1(
#500874
00
#500924
0/
#501097
01
#510000
1#
0(
#510769
10
#515000
1!
1(
#515819
1/
#516006
11
#518397
08
0:
#518806
17
#518916
1;
#519062
0A
#519065
0>
#519075
1?
#519081
1@
#519277
1<
#519629
0@
#519665
0?
#521629
05
0$
#521633
02
0'
#525000
0!
0(
#525924
0/
#526097
01
#530000
1!
1(
#530819
1/
#531006
11
#533397
18
1=
#533826
07
#534352
1>
#536940
12
1'
#540000
0#
0!
0(
#540874
00
#540924
0/
#541097
01
#545000
1!
1(
#545819
1/
#546006
11
#548397
08
#548900
0;
#549245
19
#549268
0<
#549663
1?
#552586
13
1&
#555000
0!
0(
#555924
0/
#556097
01
#560000
1!
1(
#560819
1/
#561006
11
#563397
1:
0=
#564025
1A
#564026
1@
#564115
17
#565000
0!
0(
#565924
0/
#566097
01
#566611
15
1$
#566775
14
1%
#580000
1!
1(
#580819
1/
#581006
11
#583397
18
#583826
07
#584160
09
#584596
0@
#584633
0?
#585000
0!
0(
#585924
0/
#586097
01
#587303
04
0%
#587526
03
0&
#595000
1!
1(
#595819
1/
#596006
11
#598397
08
0:
#598806
17
#599062
0A
#599065
0>
#599075
1?
#599081
1@
#599629
0@
#599665
0?
#601629
05
0$
#601633
02
0'
#610000
1#
0!
0(
#610769
10
#610924
0/
#611097
01
#614315
1;
#614676
1<
#625000
1!
1(
#625819
1/
#626006
11
#628397
18
1=
#628826
07
#629352
1>
#631940
12
1'
#640000
0!
0(
#640924
0/
#641097
01
#645000
1!
1(
#645819
1/
#646006
11
#648397
08
#648900
0;
#649245
19
#649268
0<
#649663
1?
#650000
0#
0!
0(
#650874
00
#650924
0/
#651097
01
#652586
13
1&
#660000
1!
1(
#660819
1/
#661006
11
#663397
1:
0=
#664025
1A
#664026
1@
#664115
17
#665000
0!
0(
#665924
0/
#666097
01
#666611
15
1$
#666775
14
1%
#670000
1#
1!
1(
#670769
10
#670819
1/
#671006
11
#673397
18
#673826
07
#674160
09
#674596
0@
#674633
0?
#675000
0!
0(
#675924
0/
#676097
01
#677303
04
0%
#677526
03
0&
#680000
0#
1(
#680874
00
#685000
1!
0(
#685819
1/
#686006
11
#688397
08
0:
#688806
17
#689062
0A
#689065
0>
#689075
1?
#689081
1@
#689629
0@
#689665
0?
#690000
1#
0!
1(
#690769
10
#690924
0/
#691097
01
#691629
05
0$
#691633
02
0'
#694315
1;
#694676
1<
#700000
1!
0(
#700819
1/
#701006
11
#703397
18
1=
#703826
07
#704352
1>
#706940
12
1'
#710000
0#
1(
#710874
00
#715000
0!
0(
#715924
0/
#716097
01
#720000
1!
1(
#720819
1/
#721006
11
#723397
08
#723900
0;
#724245
19
#724268
0<
#724663
1?
#727586
13
1&
#735000
0!
0(
#735924
0/
#736097
01
#740000
1#
1!
1(
#740769
10
#740819
1/
#741006
11
#743397
1:
0=
#744025
1A
#744026
1@
#744115
17
#744315
1;
#744676
1<
#745000
0!
0(
#745924
0/
#746097
01
#746611
15
1$
#746775
14
1%
#750000
0#
1!
1(
#750819
1/
#750874
00
#751006
11
#753397
18
1=
#753823
0;
#753826
07
#754160
09
#754191
0<
#754568
0A
#757135
05
0$
#760000
0!
0(
#760924
0/
#761097
01
#780000
1#
1(
#780769
10
#790000
0#
0(
#790874
00
#795000
1!
1(
#795819
1/
#796006
11
#798397
08
0:
0=
#799115
17
#799431
0>
#799629
0@
#799665
0?
#801999
02
0'
#802336
04
0%
#802558
03
0&
#805000
0!
0(
#805924
0/
#806097
01
#810000
1#
1!
1(
#810769
10
#810819
1/
#811006
11
#813397
18
#813826
07
#814158
19
#814610
1@
#814631
1?
#815000
0!
0(
#815924
0/
#816097
01
#817359
14
1%
#817554
13
1&
#820000
0#
1!
1(
#820819
1/
#820874
00
#821006
11
#823397
08
1:
#823806
17
#823916
1;
#824007
0?
#824010
0@
#824025
1A
#824026
1>
#824277
1<
#824643
1@
#824663
1?
#824668
0;
#825036
0<
#826611
15
1$
#826614
12
1'
#830000
1#
0(
#830769
10
#834315
1;
#834676
1<
#840000
0!
1(
#840924
0/
#841097
01
#850000
0#
1!
0(
#850819
1/
#850874
00
#851006
11
#853397
18
1=
#853823
0;
#853826
07
#854160
09
#854191
0<
#854568
0A
#855000
0!
1(
#855924
0/
#856097
01
#857135
05
0$
#865000
1!
0(
#865819
1/
#866006
11
#868397
08
0:
0=
#869115
17
#869431
0>
#869629
0@
#869665
0?
#870000
0!
1(
#870924
0/
#871097
01
#871999
02
0'
#872336
04
0%
#872558
03
0&
#875000
1!
0(
#875819
1/
#876006
11
#878397
18
#878826
07
#879158
19
#879610
1@
#879631
1?
#880000
1#
0!
1(
#880769
10
#880924
0/
#881097
01
#882359
14
1%
#882554
13
1&
#885000
1!
0(
#885819
1/
#886006
11
#888397
08
1:
#888806
17
#888916
1;
#889007
0?
#889010
0@
#889025
1A
#889026
1>
#889277
1<
#889643
1@
#889663
1?
#890000
0#
0!
1(
#890874
00
#890924
0/
#891097
01
#891611
15
1$
#891614
12
1'
#894668
0;
#895000
1!
0(
#895036
0<
#895819
1/
#896006
11
#898397
18
#898826
07
#899160
09
#899596
0@
#899633
0?
#900000
1#
1(
#900769
10
#902303
04
0%
#902526
03
0&
#910000
0!
0#
0(
#910874
00
#910924
0/
#911097
01
#930000
1#
1(
#930769
10
#935000
1!
0(
#935819
1/
#936006
11
#938397
08
0:
#938806
17
#938916
1;
#939062
0A
#939065
0>
#939075
1?
#939081
1@
#939277
1<
#939629
0@
#939665
0?
#941629
05
0$
#941633
02
0'
#945000
0!
1(
#945924
0/
#946097
01
#950000
0#
1!
0(
#950819
1/
#950874
00
#951006
11
#953397
18
1=
#953826
07
#954352
1>
#955000
0!
1(
#955924
0/
#956097
01
#956940
12
1'
#960000
1#
1!
0(
#960769
10
#960819
1/
#961006
11
#963397
08
#963900
0;
#964245
19
#964268
0<
#964663
1?
#967586
13
1&
#970000
0#
0!
1(
#970874
00
#970924
0/
#971097
01
#975000
1!
0(
#975819
1/
#976006
11
#978397
1:
0=
#979025
1A
#979026
1@
#979115
17
#981611
15
1$
#981775
14
1%
#990000
1#
0!
1(
#990769
10
#990924
0/
#991097
01
#994315
1;
#994676
1<
