Parte E/simulation/qsim/esclavo.msim.vcd
$comment
	File created using the following command:
		vcd file esclavo.msim.vcd -direction
$end
$date
	Wed Nov 06 18:48:35 2024
$end
$version
	ModelSim Version 10.1d
$end
$timescale
	1ps
$end
$scope module esclavo_vlg_vec_tst $end
$var reg 1 ! clock $end
$var reg 1 " fin_dato $end
$var reg 1 # fin_dir $end
$var reg 1 $ reset $end
$var reg 1 % SDA $end
$var reg 1 & soy $end
$var wire 1 ' hab_ACK $end
$var wire 1 ( hab_dato $end
$var wire 1 ) hab_dir $end
$var wire 1 * sampler $end
$scope module i1 $end
$var wire 1 + gnd $end
$var wire 1 , vcc $end
$var wire 1 - unknown $end
$var tri1 1 . devclrn $end
$var tri1 1 / devpor $end
$var tri1 1 0 devoe $end
$var wire 1 1 clock~input_o $end
$var wire 1 2 SDA~input_o $end
$var wire 1 3 soy~input_o $end
$var wire 1 4 clock~inputclkctrl_outclk $end
$var wire 1 5 hab_dato~output_o $end
$var wire 1 6 hab_dir~output_o $end
$var wire 1 7 hab_ACK~output_o $end
$var wire 1 8 reset~input_o $end
$var wire 1 9 fin_dir~input_o $end
$var wire 1 : reg_fstate.OSCIOSO~0_combout $end
$var wire 1 ; fin_dato~input_o $end
$var wire 1 < reg_fstate.OSCIOSO~1_combout $end
$var wire 1 = reg_fstate.OSCIOSO~2_combout $end
$var wire 1 > fstate.OSCIOSO~q $end
$var wire 1 ? reg_fstate.START~0_combout $end
$var wire 1 @ fstate.START~q $end
$var wire 1 A reg_fstate.guarda_dir~0_combout $end
$var wire 1 B fstate.guarda_dir~q $end
$var wire 1 C reg_fstate.RW~0_combout $end
$var wire 1 D fstate.RW~q $end
$var wire 1 E reg_fstate.ACK~0_combout $end
$var wire 1 F fstate.ACK~q $end
$var wire 1 G reg_fstate.guardadato~0_combout $end
$var wire 1 H fstate.guardadato~q $end
$var wire 1 I hab_dato~0_combout $end
$var wire 1 J hab_dir~0_combout $end
$var wire 1 K hab_ACK~0_combout $end
$upscope $end
$upscope $end
$enddefinitions $end
#0
$dumpvars
1!
0"
1#
0$
1%
1&
0'
0(
0)
x*
0+
1,
x-
1.
1/
10
11
12
13
14
05
06
07
08
19
0:
0;
1<
0=
0>
0?
0@
0A
0B
0C
0D
0E
0F
0G
0H
0I
0J
0K
$end
#5000
0!
0%
01
02
04
0*
1?
0<
1=
#10000
1"
0&
1%
1;
03
12
1*
1<
0?
0=
#15000
0%
02
0*
1?
0<
1=
#20000
0#
0"
1&
09
0;
13
1*
#25000
1!
11
14
0*
1@
1>
1A
0?
#30000
1%
1"
0&
0!
12
1;
03
01
04
1*
#35000
0%
02
0*
#40000
0"
1&
1%
0;
13
12
1*
#45000
1!
0%
11
02
14
0*
1B
0@
1J
16
1)
#50000
1"
0&
1;
03
1*
#60000
1#
1&
19
13
0*
1C
0A
#65000
0!
01
04
1*
#70000
1%
0#
1!
12
09
11
14
0*
0C
1A
1D
0B
1E
0A
0J
06
0)
#75000
0%
02
1*
#80000
0&
03
0*
#85000
0!
01
04
1*
#90000
0"
1!
0;
11
14
0*
1F
0D
1G
0E
1K
17
1'
#95000
0!
01
04
1*
#100000
1#
1&
1"
1!
19
13
1;
11
14
0*
1H
0F
0G
1<
1I
0K
0=
15
07
1(
0'
#105000
1%
12
1*
#110000
0"
0%
0;
02
0*
1G
0<
1=
#115000
0!
01
04
1*
#120000
0#
1%
1!
09
12
11
14
0*
#125000
0%
0!
02
01
04
1*
#130000
1#
19
0*
#135000
1!
11
14
1*
#140000
0&
1"
1%
0!
03
1;
12
01
04
0*
0G
1<
0=
#145000
1!
11
14
1*
0H
0>
0I
05
0(
#150000
0"
0%
0!
0;
02
01
04
0*
0<
1?
1=
#160000
0#
1"
1%
1!
09
1;
12
11
14
1*
1<
0?
0=
1@
1>
1A
0<
1=
#170000
1&
0!
13
01
04
0*
#185000
0%
02
1*
#190000
1#
0&
1!
1%
19
03
11
12
14
0*
1B
0@
0A
1:
1J
0=
16
1)
#195000
0%
02
1*
#200000
0"
1&
0!
1%
0;
13
01
12
04
0*
1C
0:
1=
#205000
0%
02
1*
#210000
1"
1!
1%
1;
11
12
14
0*
1D
0B
1E
0C
0J
06
0)
#220000
0&
0"
0!
03
0;
01
04
1*
#225000
1!
11
14
0*
1F
0D
1G
0E
1K
17
1'
#230000
0#
1&
1"
0!
09
13
1;
01
04
1*
#235000
0%
1!
02
11
14
0*
1H
0F
0G
1<
1I
0K
0=
15
07
1(
0'
#240000
0&
03
1*
#245000
0!
01
04
0*
#250000
0"
1!
0;
11
14
1*
1G
0<
1=
0H
0>
0G
1?
0I
05
0(
#255000
1%
12
0*
0?
1<
0=
#260000
1#
1"
0%
19
1;
02
1*
0<
1?
1=
#265000
0!
01
04
0*
#270000
0"
1%
1!
0;
12
11
14
1*
1<
0?
0=
1@
1>
1A
0<
1=
#275000
0!
01
04
0*
#280000
1&
1"
1!
13
1;
11
14
1*
1B
0@
1C
0A
1J
16
1)
#285000
0%
0!
02
01
04
0*
#290000
0#
0&
1%
1!
09
03
12
11
14
1*
0C
1A
1D
0B
1E
0A
0J
06
0)
#295000
0!
01
04
0*
#300000
0"
1#
1&
0%
1!
0;
19
13
02
11
14
1*
1F
0D
1G
0E
1K
17
1'
#305000
0!
01
04
0*
#310000
0&
1%
03
12
1*
#315000
0%
02
0*
#320000
1"
0#
1&
1%
1;
09
13
12
1*
#325000
1!
0%
11
02
14
0*
1H
0F
0G
1<
1I
0K
0=
15
07
1(
0'
#330000
0"
1#
0&
0!
0;
19
03
01
04
1*
1G
0<
1=
#345000
1!
11
14
0*
#350000
0!
01
04
1*
#355000
1%
1!
12
11
14
0*
#360000
1"
0#
0!
1;
09
01
04
1*
0G
1<
0=
#365000
0%
1!
02
11
14
0*
0H
0>
0<
1?
0I
1=
05
0(
#370000
1&
1#
0!
13
19
01
04
1*
#375000
1!
11
14
0*
1@
1>
1A
0?
#380000
0"
0#
0;
09
1*
#385000
1%
12
0*
#390000
0&
1#
0%
03
19
02
1*
#395000
0!
01
04
0*
#400000
1"
0#
1%
1!
1;
09
12
11
14
1*
1B
0@
1J
16
1)
#405000
0%
02
0*
#410000
0!
01
04
1*
#420000
1&
0"
1%
1!
13
0;
12
11
14
0*
#425000
0!
01
04
1*
#430000
0&
1"
03
1;
0*
#435000
1!
11
14
1*
#440000
0%
0"
0!
02
0;
01
04
0*
#445000
1%
12
1*
#450000
1"
1!
0%
1;
11
02
14
0*
#460000
1#
0"
1%
19
0;
12
1*
0A
1:
0=
#470000
0#
09
0*
1A
0:
1=
#475000
0%
02
1*
#480000
1&
0!
1"
1#
13
01
1;
19
04
0*
1C
0A
#485000
1%
1!
12
11
14
1*
1D
0B
1E
0C
0J
06
0)
#490000
0&
0#
0%
03
09
02
0*
#500000
0"
0!
1&
1#
0;
01
13
19
04
1*
#505000
1%
1!
12
11
14
0*
1F
0D
1G
0E
1K
17
1'
#510000
1"
0#
0%
1;
09
02
1*
#515000
0!
1%
01
12
04
0*
#520000
1#
19
1*
#530000
0&
0"
1!
0%
03
0;
11
02
14
0*
1H
0F
1I
0K
15
07
1(
0'
#540000
0#
1"
0!
09
1;
01
04
1*
0G
1<
0=
#545000
1%
1!
12
11
14
0*
0H
0>
0I
05
0(
#550000
0%
02
1*
1?
0<
1=
#555000
0!
01
04
0*
#560000
1#
0"
1!
19
0;
11
14
1*
1@
1>
1A
0?
#570000
1&
0!
13
01
04
0*
#575000
1%
1!
12
11
14
1*
1B
0@
1C
0A
1J
16
1)
#580000
1"
0%
1;
02
0*
#585000
1%
12
1*
#590000
0#
0&
0"
0%
09
03
0;
02
0*
0C
1A
#595000
0!
01
04
1*
#600000
1#
1%
19
12
0*
0A
1:
0=
#605000
0%
02
1*
#610000
1&
1!
13
11
14
0*
1C
0:
1=
0B
0>
0C
1?
0J
06
0)
#615000
0!
01
04
1*
#620000
1"
1%
1!
1;
12
11
14
0*
1<
0?
0=
1@
1>
1A
0<
1=
#625000
0%
0!
02
01
04
1*
#630000
0#
0&
09
03
0*
#635000
1%
12
1*
#640000
0"
1!
1&
0%
0;
11
13
02
14
0*
1B
0@
1J
16
1)
#645000
0!
1%
01
12
04
1*
#650000
1#
1"
19
1;
0*
1C
0A
#660000
0%
0#
02
09
1*
0C
1A
#680000
0&
1!
1%
1#
03
11
12
19
14
0*
1:
0A
0=
#685000
0%
02
1*
#690000
0!
1%
01
12
04
0*
#695000
1!
11
14
1*
0B
0>
0:
1<
0J
06
0)
#700000
0"
0%
0!
0;
02
01
04
0*
0<
1?
1=
#705000
1!
11
14
1*
1@
1>
1A
0?
#710000
0#
1"
1%
09
1;
12
0*
#715000
0!
01
04
1*
#720000
1&
0%
1!
13
02
11
14
0*
1B
0@
1J
16
1)
#725000
1%
0!
12
01
04
1*
#730000
1#
0%
19
02
0*
1C
0A
#735000
1!
11
14
1*
1D
0B
1E
0C
0J
06
0)
#740000
0"
0&
0#
1%
0;
03
09
12
0*
#745000
0%
02
1*
#750000
1"
1&
1%
1;
13
12
0*
#755000
0%
02
1*
#760000
0&
1%
03
12
0*
#770000
0!
1#
0%
01
19
02
04
1*
#780000
0"
1!
0;
11
14
0*
1F
0D
1G
0E
1K
17
1'
#785000
1%
12
1*
#790000
1&
0%
13
02
0*
#795000
0!
1%
01
12
04
1*
#800000
0#
1"
0&
0%
09
1;
03
02
0*
#805000
1%
12
1*
#810000
1!
1&
0%
11
13
02
14
0*
1H
0F
0G
1<
1I
0K
0=
15
07
1(
0'
#815000
1%
12
1*
#820000
0"
0!
0;
01
04
0*
1G
0<
1=
#830000
1#
0&
1"
19
03
1;
1*
0G
1<
0=
#835000
1!
11
14
0*
0H
0>
0I
05
0(
#840000
0%
1&
0!
02
13
01
04
1*
1?
0<
1=
#845000
1%
12
0*
0?
1<
0=
#850000
0#
0"
0&
09
0;
03
1*
#855000
1!
11
14
0*
#860000
0%
1#
02
19
1*
1?
0<
1=
#870000
1"
0!
1%
1;
01
12
04
0*
1<
0?
0=
#875000
1!
11
14
1*
#880000
0#
0%
09
02
0*
1?
0<
1=
#885000
1%
12
1*
0?
1<
0=
#890000
1#
19
0*
#895000
0%
02
1*
1?
0<
1=
#900000
0!
1%
01
12
04
0*
0?
1<
0=
#905000
1!
0%
11
02
14
1*
1?
0<
1=
#910000
1&
0"
0#
1%
13
0;
09
12
0*
1<
0?
0=
#915000
0!
0%
01
02
04
1*
1?
0<
1=
#920000
0&
1#
1!
1%
03
19
11
12
14
0*
0?
1<
0=
1@
1>
1A
0<
1=
#930000
1&
0%
13
02
1*
#935000
0!
1%
01
12
04
0*
#940000
1"
0#
0&
1!
1;
09
03
11
14
1*
1B
0@
1J
16
1)
#945000
0%
0!
02
01
04
0*
#950000
0"
1&
0;
13
1*
#960000
1!
11
14
0*
#965000
1%
12
1*
#970000
1"
1;
0*
#975000
0%
02
1*
#980000
1#
0&
0!
19
03
01
04
0*
0A
1:
0=
#985000
1%
12
1*
#990000
0"
0#
1&
1!
0;
09
13
11
14
0*
1A
0:
1=
0B
0>
0A
1<
0J
0=
06
0)
#995000
0%
02
1*
1?
0<
1=
